USGS Overview Document • streamFlowExplorer
…
Percent non-missing

Spatial Coverage

The map below shows USGS gage locations

## Simple feature collection with 77 features and 43 fields
## Geometry type: POINT
## Dimension:     XY
## Bounding box:  xmin: -123.6439 ymin: 36.98439 xmax: -119.0864 ymax: 40.93959
## Geodetic CRS:  WGS 84
## # A tibble: 77 × 44
##    tributary  gage  min_date   max_date   agency_cd station_nm site_tp_cd lat_va
##  * <chr>      <chr> <date>     <date>     <chr>     <chr>      <chr>       <dbl>
##  1 American … 1144… 1862-01-10 2021-12-30 USGS      AMERICAN … ST         383808
##  2 American … 1142… 1942-01-27 2021-10-25 USGS      NF AMERIC… ST         385610
##  3 Antelope … 1137… 1940-10-01 1982-09-09 USGS      ANTELOPE … ST         401214
##  4 Battle Cr… 1137… 1961-12-01 2023-03-14 USGS      BATTLE C … ST         402354
##  5 Bear Creek 1145… 1992-02-02 2023-03-14 USGS      BEAR C AB… ST         385728
##  6 Bear River 1142… 1928-02-04 2021-12-27 USGS      BEAR R NR… ST         390001
##  7 Butte Cre… 1139… 1931-01-23 2023-03-14 USGS      BUTTE C N… ST         394334
##  8 Big Chico… 1138… 1930-10-01 1986-09-30 USGS      BIG CHICO… ST         394635
##  9 Calaveras… 1130… 1961-02-01 1990-09-30 USGS      CALAVERAS… ST         380853
## 10 Calaveras… 1130… 1907-01-01 1966-09-29 USGS      CALAVERAS… ST         380520
## # ℹ 67 more rows
## # ℹ 36 more variables: long_va <dbl>, coord_meth_cd <chr>, coord_acy_cd <chr>,
## #   coord_datum_cd <chr>, dec_coord_datum_cd <chr>, district_cd <chr>,
## #   state_cd <chr>, county_cd <chr>, country_cd <chr>, land_net_ds <chr>,
## #   map_nm <chr>, map_scale_fc <chr>, alt_va <dbl>, alt_meth_cd <chr>,
## #   alt_acy_va <dbl>, alt_datum_cd <chr>, huc_cd <chr>, basin_cd <chr>,
## #   topo_cd <chr>, instruments_cd <chr>, construction_dt <lgl>, …
…
